<svg width="36" height="37" viewBox="0 0 36 37" fill="none" xmlns="http://www.w3.org/2000/svg">
<path d="M2.55958 22.7366C2.50247 21.5942 3.41329 20.6367 4.55709 20.6367H31.443C32.5868 20.6367 33.4976 21.5942 33.4405 22.7366L32.8223 35.1002C32.7691 36.1646 31.8906 37.0004 30.8248 37.0004H5.17527C4.10952 37.0004 3.23099 36.1646 3.17777 35.1002L2.55958 22.7366Z" fill="url(#paint0_linear_407_2550)"/>
<path d="M0.180508 12.1661C0.0833379 11.0001 1.00352 10 2.1736 10H33.8264C34.9965 10 35.9167 11.0001 35.8195 12.1661L35.3346 17.9843C35.2483 19.0209 34.3817 19.8182 33.3416 19.8182H2.65845C1.61827 19.8182 0.751738 19.0209 0.665356 17.9843L0.180508 12.1661Z" fill="url(#paint1_linear_407_2550)"/>
<path fill-rule="evenodd" clip-rule="evenodd" d="M13.8249 8.42846C14.7121 8.49821 15.598 8.54222 16.3777 8.56761C15.4934 6.87056 14.3404 4.97215 13.1728 3.62586C12.3955 2.72971 11.725 2.21312 11.2273 2.05172C11.0073 1.98038 10.8664 1.99297 10.7644 2.02925C10.6571 2.06742 10.4824 2.17169 10.2697 2.47544C9.5422 3.51477 9.04738 4.36366 8.74287 5.05623C8.43548 5.75535 8.34934 6.23418 8.36534 6.55396C8.37947 6.8367 8.4729 7.02731 8.648 7.1991C8.85002 7.3973 9.19799 7.6029 9.76681 7.79256C10.665 8.09206 12.1938 8.30021 13.8249 8.42846ZM8.63126 1.32852C9.01709 0.777337 9.50044 0.35617 10.0939 0.144988C10.6927 -0.0680858 11.2952 -0.0287831 11.8442 0.149237C12.8844 0.486551 13.8543 1.35923 14.6837 2.31545C15.8754 3.68951 17.0125 5.51796 17.9102 7.18774C18.836 5.50813 20.0525 3.60654 21.3324 2.20207C22.1655 1.28776 23.1356 0.459064 24.1691 0.140104C24.7114 -0.0272617 25.3028 -0.0635636 25.8914 0.135764C26.4778 0.334384 26.9633 0.733716 27.3548 1.266C28.1243 2.31217 28.7007 3.23685 29.0801 4.05815C29.4562 4.87223 29.6703 5.65201 29.6318 6.38611C29.5911 7.16119 29.2718 7.80873 28.7346 8.31042C28.2269 8.78442 27.5609 9.09596 26.8517 9.32103C25.7031 9.68557 23.9593 9.89416 22.3278 10.0163C21.2849 10.0943 20.2461 10.1396 19.3652 10.1626L19.5667 10.5964H17.9999C16.9803 10.5964 15.3294 10.5529 13.6682 10.4223C12.0363 10.294 10.2878 10.0745 9.13418 9.68987C8.42059 9.45193 7.75332 9.12316 7.24734 8.62675C6.71445 8.10393 6.40713 7.43968 6.36783 6.65385C6.33039 5.90506 6.53814 5.1016 6.91203 4.25124C7.28879 3.39433 7.86265 2.42654 8.63126 1.32852ZM22.1786 8.02184C21.3051 8.0872 20.4328 8.12884 19.6617 8.1532C20.5377 6.56411 21.6674 4.80377 22.8107 3.54916C23.5841 2.70044 24.2544 2.20686 24.7589 2.05116C24.9856 1.9812 25.1376 1.99207 25.2498 2.03007C25.3641 2.06878 25.5367 2.16954 25.7437 2.45096C26.4704 3.43906 26.9626 4.24344 27.2645 4.8969C27.5697 5.55757 27.6494 5.99824 27.6345 6.28118C27.6218 6.52314 27.5403 6.68922 27.3696 6.84864C27.1692 7.03576 26.82 7.23281 26.2468 7.41472C25.3436 7.70136 23.81 7.89974 22.1786 8.02184Z" fill="url(#paint2_linear_407_2550)"/>
<rect x="14.7271" y="10" width="7.36364" height="27" fill="white"/>
<defs>
<linearGradient id="paint0_linear_407_2550" x1="33.5455" y1="24.7276" x2="4.7745" y2="41.0817" gradientUnits="userSpaceOnUse">
<stop stop-color="#97191F"/>
<stop offset="1" stop-color="#ED1B24"/>
</linearGradient>
<linearGradient id="paint1_linear_407_2550" x1="39.2727" y1="12.4545" x2="19.5777" y2="36.5141" gradientUnits="userSpaceOnUse">
<stop stop-color="#97191F"/>
<stop offset="1" stop-color="#ED1B24"/>
</linearGradient>
<linearGradient id="paint2_linear_407_2550" x1="6.36351" y1="10.0666" x2="29.2753" y2="-6.03596" gradientUnits="userSpaceOnUse">
<stop stop-color="#E91B24"/>
<stop offset="1" stop-color="#8A090F"/>
</linearGradient>
</defs>
</svg>
