<svg width="33" height="40" viewBox="0 0 33 40" fill="none" xmlns="http://www.w3.org/2000/svg">
<path fill-rule="evenodd" clip-rule="evenodd" d="M30.4348 0H1.73913C0.778261 0 0 0.778261 0 1.73913V38.2609C0 39.2217 0.778261 40 1.73913 40H30.4348C31.3957 40 32.1739 39.2217 32.1739 38.2609V1.73913C32.1739 0.778261 31.3957 0 30.4348 0" fill="#212121"/>
<path fill-rule="evenodd" clip-rule="evenodd" d="M26.9565 5.21729H5.21739C4.73652 5.21729 4.34782 5.60685 4.34782 6.08685V11.3042C4.34782 11.7842 4.73652 12.1738 5.21739 12.1738H26.9565C27.4374 12.1738 27.8261 11.7842 27.8261 11.3042V6.08685C27.8261 5.60685 27.4374 5.21729 26.9565 5.21729" fill="white"/>
<path fill-rule="evenodd" clip-rule="evenodd" d="M9.56522 15.6521H5.21739C4.73652 15.6521 4.34782 16.0417 4.34782 16.5217V19.9999C4.34782 20.4799 4.73652 20.8695 5.21739 20.8695H9.56522C10.0461 20.8695 10.4348 20.4799 10.4348 19.9999V16.5217C10.4348 16.0417 10.0461 15.6521 9.56522 15.6521" fill="#A2A2A2"/>
<path fill-rule="evenodd" clip-rule="evenodd" d="M18.2609 15.6521H13.913C13.4322 15.6521 13.0435 16.0417 13.0435 16.5217V19.9999C13.0435 20.4799 13.4322 20.8695 13.913 20.8695H18.2609C18.7417 20.8695 19.1304 20.4799 19.1304 19.9999V16.5217C19.1304 16.0417 18.7417 15.6521 18.2609 15.6521" fill="#A2A2A2"/>
<path fill-rule="evenodd" clip-rule="evenodd" d="M26.9564 15.6523H22.6086C22.1277 15.6523 21.739 16.0419 21.739 16.5219V20.0002C21.739 20.4802 22.1277 20.8697 22.6086 20.8697H26.9564C27.4373 20.8697 27.826 20.4802 27.826 20.0002V16.5219C27.826 16.0419 27.4373 15.6523 26.9564 15.6523" fill="#A2A2A2"/>
<path fill-rule="evenodd" clip-rule="evenodd" d="M9.56522 22.6086H5.21739C4.73652 22.6086 4.34782 22.9982 4.34782 23.4782V26.9565C4.34782 27.4365 4.73652 27.826 5.21739 27.826H9.56522C10.0461 27.826 10.4348 27.4365 10.4348 26.9565V23.4782C10.4348 22.9982 10.0461 22.6086 9.56522 22.6086" fill="#A2A2A2"/>
<path fill-rule="evenodd" clip-rule="evenodd" d="M18.2609 22.6086H13.913C13.4322 22.6086 13.0435 22.9982 13.0435 23.4782V26.9565C13.0435 27.4365 13.4322 27.826 13.913 27.826H18.2609C18.7417 27.826 19.1304 27.4365 19.1304 26.9565V23.4782C19.1304 22.9982 18.7417 22.6086 18.2609 22.6086" fill="#A2A2A2"/>
<path fill-rule="evenodd" clip-rule="evenodd" d="M26.9564 22.6086H22.6086C22.1277 22.6086 21.739 22.9982 21.739 23.4782V33.913C21.739 34.393 22.1277 34.7826 22.6086 34.7826H26.9564C27.4373 34.7826 27.826 34.393 27.826 33.913V23.4782C27.826 22.9982 27.4373 22.6086 26.9564 22.6086" fill="#ED1B24"/>
<path fill-rule="evenodd" clip-rule="evenodd" d="M9.56522 29.5652H5.21739C4.73652 29.5652 4.34782 29.9548 4.34782 30.4348V33.913C4.34782 34.393 4.73652 34.7826 5.21739 34.7826H9.56522C10.0461 34.7826 10.4348 34.393 10.4348 33.913V30.4348C10.4348 29.9548 10.0461 29.5652 9.56522 29.5652" fill="#A2A2A2"/>
<path fill-rule="evenodd" clip-rule="evenodd" d="M18.2609 29.5652H13.913C13.4322 29.5652 13.0435 29.9548 13.0435 30.4348V33.913C13.0435 34.393 13.4322 34.7826 13.913 34.7826H18.2609C18.7417 34.7826 19.1304 34.393 19.1304 33.913V30.4348C19.1304 29.9548 18.7417 29.5652 18.2609 29.5652" fill="#A2A2A2"/>
</svg>
