<svg width="48" height="48" viewBox="0 0 48 48" fill="none" xmlns="http://www.w3.org/2000/svg">
<g clip-path="url(#clip0_377_2764)">
<path d="M39.7857 41.5576C39.9258 41.5922 40.0722 41.5922 40.2124 41.5576C42.4429 41.004 44.4228 39.7174 45.8348 37.9041C47.2467 36.0908 48.0089 33.8559 47.9989 31.5577V24.6689C47.9989 24.4332 47.9053 24.2071 47.7386 24.0404C47.5719 23.8737 47.3458 23.78 47.11 23.78C45.1447 23.786 43.2011 23.3676 41.4123 22.5534C40.3101 22.0556 40.0879 21.8778 39.6346 22.0823C37.5551 23.1827 35.2407 23.7651 32.888 23.78C32.6523 23.78 32.4262 23.8737 32.2595 24.0404C32.0928 24.2071 31.9991 24.4332 31.9991 24.6689V31.5577C31.9892 33.8559 32.7513 36.0908 34.1633 37.9041C35.5752 39.7174 37.5552 41.004 39.7857 41.5576V41.5576ZM33.7769 25.5578C35.9434 25.4192 38.0597 24.8448 39.999 23.8689C41.9363 24.8501 44.0537 25.4248 46.2212 25.5578V31.5844C46.2229 33.4429 45.6154 35.2507 44.4916 36.7309C43.3678 38.2112 41.7897 39.2822 39.999 39.7798C38.2084 39.2822 36.6303 38.2112 35.5065 36.7309C34.3827 35.2507 33.7751 33.4429 33.7769 31.5844V25.5578Z" fill="black"/>
<rect x="39.1062" y="27.335" width="1.7776" height="8.888" rx="0.8888" fill="#ED1B24"/>
<rect x="35.551" y="32.668" width="1.7776" height="8.888" rx="0.8888" transform="rotate(-90 35.551 32.668)" fill="#ED1B24"/>
<path d="M13.999 21.499H19.0409C19.0847 21.499 19.1233 21.4706 19.1364 21.4289L20.0826 18.4077C20.1142 18.3067 20.2604 18.3176 20.2768 18.4221L21.2243 24.4728C21.2414 24.5821 21.3971 24.5868 21.4208 24.4787L23.3606 15.6306C23.385 15.5189 23.5474 15.5291 23.5578 15.6429L24.1924 22.5892C24.2019 22.6936 24.3452 22.7148 24.3846 22.6177L25.9274 18.8174C25.9651 18.7247 26.1005 18.7386 26.1185 18.8371L27.0981 24.1992C27.1154 24.2942 27.2441 24.3118 27.2864 24.225L28.587 21.5552C28.6038 21.5208 28.6387 21.499 28.6769 21.499H32.999" stroke="black" stroke-width="1.5" stroke-linecap="round"/>
<path d="M29.4581 35.7117C29.9233 35.414 30.0591 34.7956 29.7615 34.3304C29.4638 33.8652 28.8454 33.7294 28.3802 34.027L29.4581 35.7117ZM23.9291 37.7294L23.5037 38.6344L23.9352 38.8372L24.3645 38.6296L23.9291 37.7294ZM5.16914 20.8394L6.1048 20.4865L6.1046 20.486L5.16914 20.8394ZM13.0491 5.11937L12.8592 4.13757L12.8576 4.13789L13.0491 5.11937ZM23.9291 11.1294L23.1152 11.7104L23.9819 12.9245L24.7758 11.6615L23.9291 11.1294ZM37.9291 5.96937L37.4928 6.86916L37.5161 6.88043L37.5399 6.89049L37.9291 5.96937ZM42.5268 18.2674C42.3766 18.7989 42.6857 19.3515 43.2172 19.5017C43.7487 19.6519 44.3013 19.3428 44.4515 18.8113L42.5268 18.2674ZM28.3802 34.027C26.9729 34.9275 25.7457 35.6308 24.8722 36.1081C24.4356 36.3466 24.0879 36.5284 23.8508 36.6498C23.7323 36.7105 23.6414 36.7561 23.581 36.7861C23.5508 36.8011 23.5282 36.8123 23.5135 36.8195C23.5062 36.8231 23.5009 36.8257 23.4976 36.8273C23.4959 36.8281 23.4948 36.8286 23.4942 36.8289C23.4938 36.8291 23.4936 36.8292 23.4936 36.8292C23.4936 36.8292 23.4936 36.8292 23.4936 36.8292C23.4936 36.8292 23.4937 36.8292 23.4937 36.8292C23.4937 36.8291 23.4938 36.8291 23.9291 37.7294C24.3645 38.6296 24.3646 38.6296 24.3646 38.6296C24.3647 38.6295 24.3648 38.6295 24.3649 38.6294C24.365 38.6294 24.3652 38.6293 24.3655 38.6292C24.3659 38.6289 24.3665 38.6286 24.3672 38.6283C24.3687 38.6276 24.3706 38.6267 24.3731 38.6255C24.378 38.6231 24.385 38.6197 24.394 38.6153C24.4119 38.6065 24.4379 38.5937 24.4715 38.5769C24.5387 38.5435 24.6366 38.4943 24.7625 38.4299C25.0141 38.301 25.3777 38.1109 25.8311 37.8632C26.7376 37.3679 28.0054 36.6412 29.4581 35.7117L28.3802 34.027ZM23.9291 37.7294C24.3546 36.8244 24.3547 36.8245 24.3548 36.8245C24.3548 36.8245 24.3548 36.8245 24.3547 36.8244C24.3545 36.8243 24.3541 36.8241 24.3534 36.8238C24.3521 36.8232 24.3499 36.8222 24.3468 36.8207C24.3406 36.8178 24.3308 36.8131 24.3176 36.8068C24.2912 36.7941 24.2509 36.7747 24.1975 36.7487C24.0909 36.6967 23.9321 36.6182 23.7275 36.5143C23.3184 36.3066 22.7268 35.9976 22.0041 35.5958C20.5574 34.7916 18.5917 33.6192 16.5149 32.1473C12.3178 29.1726 7.84337 25.096 6.1048 20.4865L4.23347 21.1923C6.1949 26.3927 11.1004 30.7612 15.3584 33.779C17.5091 35.3033 19.5396 36.514 21.0323 37.3439C21.7793 37.7591 22.3932 38.0799 22.8221 38.2976C23.0366 38.4065 23.2049 38.4898 23.3207 38.5462C23.3785 38.5745 23.4233 38.596 23.454 38.6107C23.4694 38.6181 23.4813 38.6238 23.4896 38.6277C23.4938 38.6297 23.497 38.6312 23.4994 38.6323C23.5006 38.6329 23.5015 38.6333 23.5022 38.6337C23.5026 38.6338 23.5029 38.634 23.5031 38.6341C23.5034 38.6342 23.5037 38.6344 23.9291 37.7294ZM6.1046 20.486C4.33423 15.7999 4.88923 12.5062 6.37831 10.2759C7.89657 8.00183 10.5184 6.63215 13.2407 6.10085L12.8576 4.13789C9.7899 4.73659 6.6167 6.31691 4.71496 9.16536C2.78405 12.0575 2.29405 16.0588 4.23367 21.1928L6.1046 20.486ZM13.2391 6.10117C15.6819 5.62863 18.0938 6.88758 20.025 8.47658C20.9692 9.25343 21.747 10.0678 22.2897 10.6901C22.5602 11.0002 22.7701 11.2602 22.9109 11.4405C22.9812 11.5306 23.0341 11.6007 23.0686 11.6469C23.0858 11.67 23.0984 11.6872 23.1062 11.6979C23.1101 11.7033 23.1129 11.7071 23.1144 11.7092C23.1151 11.7102 23.1156 11.7108 23.1157 11.7111C23.1158 11.7112 23.1158 11.7112 23.1157 11.711C23.1157 11.711 23.1156 11.7108 23.1155 11.7108C23.1154 11.7106 23.1152 11.7104 23.9291 11.1294C24.743 10.5483 24.7428 10.5481 24.7426 10.5478C24.7425 10.5476 24.7423 10.5473 24.7421 10.547C24.7417 10.5465 24.7412 10.5459 24.7407 10.5451C24.7396 10.5436 24.7382 10.5416 24.7365 10.5392C24.7331 10.5345 24.7284 10.528 24.7225 10.52C24.7107 10.5038 24.694 10.481 24.6725 10.4522C24.6296 10.3946 24.5675 10.3125 24.4874 10.2098C24.3272 10.0046 24.0942 9.71633 23.797 9.37556C23.2044 8.69599 22.3478 7.79781 21.2958 6.93216C19.2345 5.23616 16.2064 3.49011 12.8592 4.13757L13.2391 6.10117ZM23.9291 11.1294C24.7758 11.6615 24.7756 11.6618 24.7755 11.662C24.7754 11.6621 24.7753 11.6623 24.7752 11.6624C24.775 11.6627 24.7749 11.6629 24.7748 11.6631C24.7746 11.6634 24.7745 11.6635 24.7746 11.6635C24.7746 11.6634 24.7752 11.6625 24.7762 11.6609C24.7782 11.6578 24.7821 11.6517 24.788 11.6428C24.7996 11.6251 24.8188 11.5964 24.8455 11.5575C24.8991 11.4798 24.9828 11.362 25.0968 11.2124C25.3249 10.913 25.6729 10.4878 26.1412 10.0025C27.0799 9.02978 28.4883 7.82905 30.3692 6.90734L29.4891 5.1114C27.3499 6.15969 25.7584 7.51896 24.702 8.61374C24.1728 9.16215 23.7746 9.64762 23.5059 10.0004C23.3714 10.1769 23.269 10.3206 23.1986 10.4228C23.1634 10.474 23.1361 10.5148 23.1167 10.5442C23.1071 10.5589 23.0994 10.5707 23.0937 10.5796C23.0908 10.5841 23.0885 10.5878 23.0866 10.5907C23.0857 10.5922 23.0849 10.5934 23.0842 10.5945C23.0838 10.5951 23.0835 10.5956 23.0833 10.596C23.0831 10.5962 23.0829 10.5965 23.0829 10.5966C23.0827 10.5969 23.0825 10.5972 23.9291 11.1294ZM30.3692 6.90734C32.1393 6.03989 33.9158 6.02306 35.2808 6.2384C35.961 6.34572 36.5267 6.50903 36.9188 6.64407C37.1143 6.71141 37.2651 6.77119 37.3636 6.8125C37.4128 6.83313 37.4488 6.8491 37.4707 6.85902C37.4816 6.86397 37.489 6.86741 37.4928 6.86916C37.4946 6.87004 37.4956 6.87049 37.4956 6.8705C37.4956 6.8705 37.4954 6.87039 37.4949 6.87017C37.4947 6.87006 37.4944 6.86992 37.494 6.86975C37.4939 6.86967 37.4935 6.86952 37.4935 6.86948C37.4931 6.86932 37.4928 6.86916 37.9291 5.96937C38.3655 5.06958 38.3651 5.06941 38.3647 5.06922C38.3646 5.06915 38.3642 5.06896 38.3639 5.06882C38.3633 5.06853 38.3626 5.06822 38.3619 5.06787C38.3605 5.06718 38.3588 5.06638 38.3569 5.06546C38.353 5.06363 38.3482 5.06134 38.3424 5.05863C38.3309 5.05319 38.3154 5.04604 38.2962 5.03734C38.2578 5.01995 38.2044 4.99637 38.137 4.96808C38.0021 4.91154 37.8105 4.83592 37.5701 4.75311C37.0903 4.58784 36.4098 4.39177 35.5925 4.26284C33.9624 4.00568 31.7389 4.00885 29.4891 5.1114L30.3692 6.90734ZM37.9291 5.96937C37.5399 6.89049 37.5394 6.8903 37.539 6.89013C37.5389 6.89009 37.5385 6.88992 37.5383 6.88984C37.5379 6.88967 37.5376 6.88955 37.5375 6.88949C37.5372 6.88935 37.5373 6.88943 37.538 6.8897C37.5393 6.89026 37.5424 6.89163 37.5474 6.89383C37.5573 6.89824 37.5745 6.90595 37.5983 6.91703C37.646 6.9392 37.7202 6.97478 37.8165 7.02427C38.0092 7.12339 38.2887 7.27751 38.6195 7.49045C39.284 7.91808 40.1397 8.5726 40.9168 9.48079C42.4401 11.2609 43.7146 14.064 42.5268 18.2674L44.4515 18.8113C45.8436 13.8847 44.3381 10.4028 42.4364 8.18045C41.5011 7.08739 40.483 6.31128 39.7019 5.80861C39.3099 5.55639 38.9736 5.37043 38.7313 5.24576C38.61 5.18336 38.5118 5.13612 38.4415 5.10344C38.4063 5.08709 38.3781 5.07437 38.3574 5.0652C38.3471 5.06062 38.3386 5.05692 38.3321 5.0541C38.3288 5.05268 38.326 5.05149 38.3237 5.05052C38.3226 5.05003 38.3216 5.0496 38.3207 5.04922C38.3203 5.04903 38.3197 5.04879 38.3195 5.04869C38.3189 5.04846 38.3184 5.04825 37.9291 5.96937Z" fill="black"/>
</g>
<defs>
<clipPath id="clip0_377_2764">
<rect width="48" height="48" fill="white"/>
</clipPath>
</defs>
</svg>
